{
  "images" : [
    {
      "idiom" : "universal",
      "filename" : "pimgpsh_fullsize_distr2.png",
      "scale" : "1x"
    },
    {
      "idiom" : "universal",
      "filename" : "pimgpsh_fullsize_distr1.png",
      "scale" : "2x"
    },
    {
      "idiom" : "universal",
      "filename" : "pimgpsh_fullsize_distr.png",
      "scale" : "3x"
    }
  ],
  "info" : {
    "version" : 1,
    "author" : "xcode"
  }
}